D:\Facultate\Anul4\Sem1\SD\LAB\Assignment3\assignment--three\queue-server\src\main\java\ro\tuc\dsrl\ds\handson\assig\three\queue\communication\Message.java
D:\Facultate\Anul4\Sem1\SD\LAB\Assignment3\assignment--three\queue-server\src\main\java\ro\tuc\dsrl\ds\handson\assig\three\queue\communication\Session.java
D:\Facultate\Anul4\Sem1\SD\LAB\Assignment3\assignment--three\queue-server\src\main\java\ro\tuc\dsrl\ds\handson\assig\three\queue\start\ServerStart.java
D:\Facultate\Anul4\Sem1\SD\LAB\Assignment3\assignment--three\queue-server\src\main\java\ro\tuc\dsrl\ds\handson\assig\three\queue\queue\Queue.java
D:\Facultate\Anul4\Sem1\SD\LAB\Assignment3\assignment--three\queue-server\src\main\java\ro\tuc\dsrl\ds\handson\assig\three\queue\communication\Server.java
